<svg width="20" height="20" viewBox="0 0 20 20" fill="none" xmlns="http://www.w3.org/2000/svg">
<path d="M10.2908 1C5.16926 1 1 4.64665 1 9.12947C1 13.6123 5.16926 17.2589 10.2908 17.2589C11.249 17.2578 12.2025 17.125 13.1245 16.8641L16.3357 18.9081C16.4233 18.9643 16.5245 18.9959 16.6286 18.9996C16.7327 19.0033 16.8359 18.979 16.9273 18.9291C17.0187 18.8792 17.0951 18.8057 17.1483 18.7162C17.2015 18.6266 17.2297 18.5244 17.2299 18.4203V14.5123C17.9565 13.8153 18.5363 12.98 18.9352 12.0556C19.3341 11.1312 19.544 10.1363 19.5526 9.12947C19.5816 4.64665 15.4124 1 10.2908 1ZM16.266 13.8388C16.2076 13.8929 16.161 13.9585 16.129 14.0314C16.097 14.1043 16.0804 14.183 16.0802 14.2626V17.3635L13.5368 15.7434C13.4659 15.6985 13.386 15.6696 13.3028 15.6586C13.2196 15.6475 13.135 15.6547 13.0548 15.6795C12.1599 15.9575 11.228 16.0984 10.2908 16.0976C5.808 16.0976 2.16135 12.9735 2.16135 9.12947C2.16135 5.28539 5.808 2.16135 10.2908 2.16135C14.7736 2.16135 18.4203 5.28539 18.4203 9.12947C18.4071 10.0208 18.2087 10.8998 17.8379 11.7104C17.467 12.5211 16.9317 13.2459 16.266 13.8388Z" fill="#B2C2CC" stroke="#B2C2CC" stroke-width="0.4"/>
</svg>
